2019-08-13T20:26:34.996959: client send, call, DNKR(#a977cb1,DNK(DCall(main()),Fiddles[])), None
2019-08-13T20:26:37.360370: client recv, {'id': DRef('6003bc5020c5be4c803b3a737a043c1d5a828591'), 'dstatus': <DStatus.READY: 0>, 'dfuntype': <DFunType.FUNCTION: 1>, 'dcallable_hash': '6dd7dfc1e0a49376afd4742f7b695f1b1915a727', 'dnodekeyrunning': DNKR(#a977cb1,DNK(DCall(main()),Fiddles[]))}
2019-08-13T20:26:37.362936: client send, source, 6dd7dfc1e0a49376afd4742f7b695f1b1915a727
2019-08-13T20:26:37.363910: client recv, @DFunction
def main():
    DepCollector().require('test_fibonacci').require('test_functions').require('test_objects_py').require('test_exception').request()
    call('test_fibonacci')
    call('test_functions')
    call('test_objects_py')
    call('test_exception')
    print("All tests passed.")

